[
  {
    "year": 2022,
    "agency": "Xwerx",
    "client": "Guidewire",
    "project": "Software Design",
    "role": "UI/UX Design",
    "details": "n/a",
    "deets": "n/a"
  },
  {
    "year": 2022,
    "agency": "Xwerx",
    "client": "Acetech",
    "project": "UX Vision",
    "role": "Project Lead & Design",
    "details": "Case Study",
    "deets": "n/a"
  },
  {
    "year": 2021,
    "agency": "Xwerx",
    "client": "TitanHQ",
    "project": "Software Design",
    "role": "UI/UX Design",
    "details": "Read More",
    "deets": "n/a"
  },
  {
    "year": 2021,
    "agency": "Xwerx",
    "client": "Proper.ie",
    "project": "Website",
    "role": "UI Design",
    "details": "n/a",
    "deets": "n/a"
  },
  {
    "year": 2021,
    "agency": "Xwerx",
    "client": "Xwerx",
    "project": "Website",
    "role": "UI Design",
    "details": "n/a",
    "deets": "n/a"
  },
  {
    "year": 2020,
    "agency": "Personal Project",
    "client": "Money to Burn",
    "project": "Website",
    "role": "Design & Development",
    "details": "Read More",
    "deets": "n/a"
  },
  {
    "year": 2020,
    "agency": "Xwerx",
    "client": "Bord Iascaigh Mhara",
    "project": "Website",
    "role": "UI/UX Design",
    "details": "n/a",
    "deets": "n/a"
  },
  {
    "year": 2020,
    "agency": "Personal Project",
    "client": "School Days",
    "project": "Alexa Skill",
    "role": "Development",
    "details": "Read More",
    "deets": "n/a"
  },
  {
    "year": 2019,
    "agency": "Freelance",
    "client": "J Clarke Fitness",
    "project": "Mobile App",
    "role": "UI Design",
    "details": "n/a",
    "deets": "n/a"
  },
  {
    "year": 2019,
    "agency": "Xwerx",
    "client": "Top Oil",
    "project": "Website",
    "role": "UI/UX Design",
    "details": "n/a",
    "deets": "n/a"
  },
  {
    "year": 2018,
    "agency": "Xwerx",
    "client": "Unum",
    "project": "Software Design",
    "role": "UI/UX Design",
    "details": "Read More",
    "deets": "n/a"
  },
  {
    "year": 2018,
    "agency": "Xwerx",
    "client": "Passport Office",
    "project": "Website",
    "role": "UI/UX Design",
    "details": "Case Study",
    "deets": "n/a"
  },
  {
    "year": 2018,
    "agency": "Freelance",
    "client": "Amorae Bridal",
    "project": "Website",
    "role": "Design & Development",
    "details": "n/a",
    "deets": "n/a"
  },
  {
    "year": 2017,
    "agency": "Xwerx",
    "client": "My Compliance Office",
    "project": "Software Design",
    "role": "UI/UX Design",
    "details": "n/a",
    "deets": "n/a"
  },
  {
    "year": 2016,
    "agency": "Personal Project",
    "client": "Marshmallow & Mammy",
    "project": "Website",
    "role": "Design & Development",
    "details": "Read More",
    "deets": "n/a"
  }
]